@startuml

[*] -> FactoryDefault

FactoryDefault --> Provisional : IP address change via serial port
Provisional --> Testing : Cluster config is downloaded and applied
Testing --> Configured : Verification suite passed
Testing --> Provisional : Verification suite fails
Configured --> Active : Control autoconfig runs successfully
Active --> Provisional : IP address change

FactoryDefault : Port1 Address: 192.168.1.1/24
FactoryDefault : Port2 Address: none
FactoryDefault : Host name: control-appliance.synapsense.com
FactoryDefault : Time: stopped/disabled
FactoryDefault : Control: stopped/disabled

Provisional : Port1 Address: <user configured, static>
Provisional : Port2 Address: none
Provisional : Host name: control-appliance.synapsense.com
Provisional : Time: stopped/disabled
Provisional : Control: stopped/disabled

Testing : Port1 Address: <user configured, DHCP?>
Testing : Port2 Address: <user configured>
Testing : Host name: <user configured>
Testing : Time: running/enabled
Testing : Control: stopped/disabled

Configured : Port1 Address: <user configured, DHCP?>
Configured : Port2 Address: <user configured, DHCP?>
Configured : Host name: <user configured>
Configured : Time: running/enabled
Configured : Control: stopped/disabled

Active : Port1 Address: <user configured>
Active : Port2 Address: <user configured>
Active : Host name: <user configured>
Active : Time: running/enabled
Active : Control: running/enabled

@enduml
